<svg width="7" height="10" viewBox="0 0 7 10" fill="none" xmlns="http://www.w3.org/2000/svg">
<path d="M6.58268 1.10636C7.22938 0.51287 6.20545 -0.426818 5.55876 0.216126L0.816349 4.51891C0.546894 4.7662 0.546894 5.21131 0.816349 5.4586L5.55876 9.81084C6.20545 10.4043 7.22938 9.46464 6.58268 8.87115L2.37919 5.01348L6.58268 1.10636Z" fill="#0F123F"/>
</svg>
