<svg width="16" height="18" viewBox="0 0 16 18" fill="none" xmlns="http://www.w3.org/2000/svg">
<ellipse cx="7.84394" cy="8.91179" rx="5.99237" ry="6.06364" stroke="#0F123F" stroke-width="1.5" stroke-linecap="round" stroke-linejoin="round"/>
<path d="M12.0117 13.4441L14.3611 15.8152" stroke="#0F123F" stroke-width="1.5" stroke-linecap="round" stroke-linejoin="round"/>
</svg>
